{"o":"<http://www4.wiwiss.fu-berlin.de/drugbank/resource/drugs/DB00234>","p":"<http://www.w3.org/2002/07/owl#sameAs>","q":"<http://dbpedia.org/resource/Reboxetine>"}
{"o":"<http://www4.wiwiss.fu-berlin.de/drugbank/resource/drugs/DB00234>","p":"<http://www.w3.org/2002/07/owl#sameAs>","q":"<http://data.linkedct.org/resource/intervention/12118>"}
{"o":"<http://www4.wiwiss.fu-berlin.de/drugbank/resource/drugs/DB00234>","p":"<http://www.w3.org/2002/07/owl#sameAs>","q":"<http://data.linkedct.org/resource/intervention/62272>"}
{"o":"<http://www4.wiwiss.fu-berlin.de/drugbank/resource/drugs/DB00234>","p":"<http://www.w3.org/2002/07/owl#sameAs>","q":"<http://www.dbpedia.org/resource/Reboxetine>"}
{"o":"<http://www4.wiwiss.fu-berlin.de/drugbank/resource/drugs/DB00257>","p":"<http://www.w3.org/2002/07/owl#sameAs>","q":"<http://dbpedia.org/resource/Clotrimazole>"}
{"o":"<http://www4.wiwiss.fu-berlin.de/drugbank/resource/drugs/DB00257>","p":"<http://www.w3.org/2002/07/owl#sameAs>","q":"<http://www4.wiwiss.fu-berlin.de/sider/resource/drugs/2812>"}
{"o":"<http://www4.wiwiss.fu-berlin.de/drugbank/resource/drugs/DB00257>","p":"<http://www.w3.org/2002/07/owl#sameAs>","q":"<http://data.linkedct.org/resource/intervention/3188>"}
{"o":"<http://www4.wiwiss.fu-berlin.de/drugbank/resource/drugs/DB00257>","p":"<http://www.w3.org/2002/07/owl#sameAs>","q":"<http://data.linkedct.org/resource/intervention/16653>"}
{"o":"<http://www4.wiwiss.fu-berlin.de/drugbank/resource/drugs/DB00257>","p":"<http://www.w3.org/2002/07/owl#sameAs>","q":"<http://www.dbpedia.org/resource/Clotrimazole>"}
{"o":"<http://www4.wiwiss.fu-berlin.de/drugbank/resource/drugs/DB00793>","p":"<http://www4.wiwiss.fu-berlin.de/drugbank/resource/drugbank/brandName>","q":"\"Mycanden\""}
{"o":"<http://www4.wiwiss.fu-berlin.de/drugbank/resource/drugs/DB00793>","p":"<http://www4.wiwiss.fu-berlin.de/drugbank/resource/drugbank/brandName>","q":"\"Mycilan\""}
{"o":"<http://www4.wiwiss.fu-berlin.de/drugbank/resource/drugs/DB00793>","p":"<http://www4.wiwiss.fu-berlin.de/drugbank/resource/drugbank/brandName>","q":"\"Polik\""}
{"o":"<http://www4.wiwiss.fu-berlin.de/drugbank/resource/drugs/DB00793>","p":"<http://www4.wiwiss.fu-berlin.de/drugbank/resource/drugbank/atcCode>","q":"\"D01AE11\""}
{"o":"<http://www4.wiwiss.fu-berlin.de/drugbank/resource/drugs/DB00234>","p":"<http://www4.wiwiss.fu-berlin.de/drugbank/resource/drugbank/brandName>","q":"\"Prolift\""}
{"o":"<http://data.linkedct.org/resource/intervention/12118>","p":"<http://www4.wiwiss.fu-berlin.de/drugbank/resource/drugbank/brandName>","q":"\"Solvex\""}
{"o":"<http://www4.wiwiss.fu-berlin.de/drugbank/resource/drugs/DB00234>","p":"<http://www4.wiwiss.fu-berlin.de/drugbank/resource/drugbank/brandName>","q":"\"Vestra\""}
{"o":"<http://www4.wiwiss.fu-berlin.de/drugbank/resource/drugs/DB00257>","p":"<http://www4.wiwiss.fu-berlin.de/drugbank/resource/drugbank/brandName>","q":"\"Trimysten\""}
{"o":"<http://www4.wiwiss.fu-berlin.de/drugbank/resource/drugs/DB00257>","p":"<http://www4.wiwiss.fu-berlin.de/drugbank/resource/drugbank/brandName>","q":"\"Trivagizole\""}
{"o":"<http://www4.wiwiss.fu-berlin.de/drugbank/resource/drugs/DB00257>","p":"<http://www4.wiwiss.fu-berlin.de/drugbank/resource/drugbank/brandName>","q":"\"Veltrim\""}
{"o":"<http://www4.wiwiss.fu-berlin.de/drugbank/resource/drugs/DB00257>","p":"<http://www4.wiwiss.fu-berlin.de/drugbank/resource/drugbank/atcCode>","q":"\"D01AC01\""}
{"o":"<http://www4.wiwiss.fu-berlin.de/drugbank/resource/drugs/DB00234>","p":"<http://www4.wiwiss.fu-berlin.de/drugbank/resource/drugbank/possibleDiseaseTarget>","q":"<http://www4.wiwiss.fu-berlin.de/diseasome/resource/diseases/3452>"}
