<?xml version="1.0" encoding="UTF-8" standalone="no"?>
<!DOCTYPE svg PUBLIC "-//W3C//DTD SVG 1.1//EN"
 "http://www.w3.org/Graphics/SVG/1.1/DTD/svg11.dtd">
<!-- Generated by graphviz version 2.40.1 (20161225.0304)
 -->
<!-- Title: %3 Pages: 1 -->
<svg width="1034pt" height="308pt"
 viewBox="0.00 0.00 1033.89 308.00" xmlns="http://www.w3.org/2000/svg" xmlns:xlink="http://www.w3.org/1999/xlink">
<g id="graph0" class="graph" transform="scale(1 1) rotate(0) translate(4 304)">
<title>%3</title>
<polygon fill="#ffffff" stroke="transparent" points="-4,4 -4,-304 1029.8916,-304 1029.8916,4 -4,4"/>
<!-- Rhttp://dig.isi.edu/u129u&#45;klejkajo&#45;2309124u&#45;sajfl -->
<g id="node1" class="node">
<title>Rhttp://dig.isi.edu/u129u&#45;klejkajo&#45;2309124u&#45;sajfl</title>
<g id="a_node1"><a xlink:href="http://dig.isi.edu/u129u-klejkajo-2309124u-sajfl" xlink:title="http://dig.isi.edu/u129u&#45;klejkajo&#45;2309124u&#45;sajfl">
<ellipse fill="none" stroke="#0000ff" cx="215.8916" cy="-18" rx="180.8681" ry="18"/>
<text text-anchor="middle" x="215.8916" y="-14.3" font-family="Times,serif" font-size="14.00" fill="#000000">http://dig.isi.edu/u129u&#45;klejkajo&#45;2309124u&#45;sajfl</text>
</a>
</g>
</g>
<!-- Rhttp://dig.isi.edu/Person -->
<g id="node2" class="node">
<title>Rhttp://dig.isi.edu/Person</title>
<g id="a_node2"><a xlink:href="http://dig.isi.edu/Person" xlink:title="http://dig.isi.edu/Person">
<ellipse fill="none" stroke="#0000ff" cx="94.8916" cy="-105.5" rx="94.7833" ry="18"/>
<text text-anchor="middle" x="94.8916" y="-101.8" font-family="Times,serif" font-size="14.00" fill="#000000">http://dig.isi.edu/Person</text>
</a>
</g>
</g>
<!-- Rhttp://dig.isi.edu/u129u&#45;klejkajo&#45;2309124u&#45;sajfl&#45;&gt;Rhttp://dig.isi.edu/Person -->
<g id="edge1" class="edge">
<title>Rhttp://dig.isi.edu/u129u&#45;klejkajo&#45;2309124u&#45;sajfl&#45;&gt;Rhttp://dig.isi.edu/Person</title>
<path fill="none" stroke="#000000" d="M191.1134,-35.9181C172.722,-49.2177 147.4689,-67.4792 127.4479,-81.9572"/>
<polygon fill="#000000" stroke="#000000" points="125.2754,-79.2089 119.2231,-87.9049 129.3773,-84.8812 125.2754,-79.2089"/>
<text text-anchor="middle" x="184.3916" y="-57.8" font-family="Times,serif" font-size="14.00" fill="#000000">rdf:type</text>
</g>
<!-- LJohn Doe -->
<g id="node3" class="node">
<title>LJohn Doe</title>
<polygon fill="none" stroke="#000000" points="207.8916,-87.5 207.8916,-123.5 275.8916,-123.5 275.8916,-87.5 207.8916,-87.5"/>
<text text-anchor="middle" x="241.8916" y="-101.8" font-family="Times,serif" font-size="14.00" fill="#000000">John Doe</text>
</g>
<!-- Rhttp://dig.isi.edu/u129u&#45;klejkajo&#45;2309124u&#45;sajfl&#45;&gt;LJohn Doe -->
<g id="edge2" class="edge">
<title>Rhttp://dig.isi.edu/u129u&#45;klejkajo&#45;2309124u&#45;sajfl&#45;&gt;LJohn Doe</title>
<path fill="none" stroke="#000000" d="M221.2788,-36.1301C224.8346,-48.0969 229.5638,-64.0122 233.5953,-77.5798"/>
<polygon fill="#000000" stroke="#000000" points="230.3078,-78.8043 236.5113,-87.3932 237.0179,-76.8105 230.3078,-78.8043"/>
</g>
<!-- Rhttp://dig.isi.edu/Mary -->
<g id="node4" class="node">
<title>Rhttp://dig.isi.edu/Mary</title>
<g id="a_node4"><a xlink:href="http://dig.isi.edu/Mary" xlink:title="http://dig.isi.edu/Mary">
<ellipse fill="none" stroke="#0000ff" cx="429.8916" cy="-105.5" rx="90.9839" ry="18"/>
<text text-anchor="middle" x="429.8916" y="-101.8" font-family="Times,serif" font-size="14.00" fill="#000000">http://dig.isi.edu/Mary</text>
</a>
</g>
</g>
<!-- Rhttp://dig.isi.edu/Woman -->
<g id="node5" class="node">
<title>Rhttp://dig.isi.edu/Woman</title>
<g id="a_node5"><a xlink:href="http://dig.isi.edu/Woman" xlink:title="http://dig.isi.edu/Woman">
<ellipse fill="none" stroke="#0000ff" cx="192.8916" cy="-193.5" rx="100.1823" ry="18"/>
<text text-anchor="middle" x="192.8916" y="-189.8" font-family="Times,serif" font-size="14.00" fill="#000000">http://dig.isi.edu/Woman</text>
</a>
</g>
</g>
<!-- Rhttp://dig.isi.edu/Mary&#45;&gt;Rhttp://dig.isi.edu/Woman -->
<g id="edge3" class="edge">
<title>Rhttp://dig.isi.edu/Mary&#45;&gt;Rhttp://dig.isi.edu/Woman</title>
<path fill="none" stroke="#000000" d="M386.9727,-121.4361C347.4956,-136.0943 288.8114,-157.8842 246.3141,-173.6638"/>
<polygon fill="#000000" stroke="#000000" points="244.8508,-170.4736 236.6945,-177.2356 247.2874,-177.0358 244.8508,-170.4736"/>
<text text-anchor="middle" x="347.3916" y="-145.8" font-family="Times,serif" font-size="14.00" fill="#000000">rdf:type</text>
</g>
<!-- LMary -->
<g id="node6" class="node">
<title>LMary</title>
<polygon fill="none" stroke="#000000" points="310.8916,-175.5 310.8916,-211.5 364.8916,-211.5 364.8916,-175.5 310.8916,-175.5"/>
<text text-anchor="middle" x="337.8916" y="-189.8" font-family="Times,serif" font-size="14.00" fill="#000000">Mary</text>
</g>
<!-- Rhttp://dig.isi.edu/Mary&#45;&gt;LMary -->
<g id="edge4" class="edge">
<title>Rhttp://dig.isi.edu/Mary&#45;&gt;LMary</title>
<path fill="none" stroke="#000000" d="M411.274,-123.3081C397.7711,-136.2239 379.319,-153.8738 364.2962,-168.2434"/>
<polygon fill="#000000" stroke="#000000" points="361.6044,-165.9748 356.7972,-175.4163 366.443,-171.0333 361.6044,-165.9748"/>
</g>
<!-- Rhttp://dig.isi.edu/John -->
<g id="node7" class="node">
<title>Rhttp://dig.isi.edu/John</title>
<g id="a_node7"><a xlink:href="http://dig.isi.edu/John" xlink:title="http://dig.isi.edu/John">
<ellipse fill="none" stroke="#0000ff" cx="470.8916" cy="-193.5" rx="87.9851" ry="18"/>
<text text-anchor="middle" x="470.8916" y="-189.8" font-family="Times,serif" font-size="14.00" fill="#000000">http://dig.isi.edu/John</text>
</a>
</g>
</g>
<!-- Rhttp://dig.isi.edu/Mary&#45;&gt;Rhttp://dig.isi.edu/John -->
<g id="edge5" class="edge">
<title>Rhttp://dig.isi.edu/Mary&#45;&gt;Rhttp://dig.isi.edu/John</title>
<path fill="none" stroke="#000000" d="M432.7941,-123.7337C437.2867,-136.0866 444.7619,-152.6232 452.0293,-166.4961"/>
<polygon fill="#000000" stroke="#000000" points="449.1282,-168.4866 456.9883,-175.5908 455.2739,-165.1356 449.1282,-168.4866"/>
</g>
<!-- Rhttp://dig.isi.edu/John&#45;&gt;Rhttp://dig.isi.edu/Mary -->
<g id="edge8" class="edge">
<title>Rhttp://dig.isi.edu/John&#45;&gt;Rhttp://dig.isi.edu/Mary</title>
<path fill="none" stroke="#000000" d="M468.0436,-175.4163C463.5505,-163.0293 456.0287,-146.3843 448.7217,-132.4426"/>
<polygon fill="#000000" stroke="#000000" points="451.5996,-130.4097 443.7372,-123.3081 445.455,-133.7628 451.5996,-130.4097"/>
</g>
<!-- LJohn -->
<g id="node8" class="node">
<title>LJohn</title>
<polygon fill="none" stroke="#000000" points="426.8916,-263.5 426.8916,-299.5 480.8916,-299.5 480.8916,-263.5 426.8916,-263.5"/>
<text text-anchor="middle" x="453.8916" y="-277.8" font-family="Times,serif" font-size="14.00" fill="#000000">John</text>
</g>
<!-- Rhttp://dig.isi.edu/John&#45;&gt;LJohn -->
<g id="edge6" class="edge">
<title>Rhttp://dig.isi.edu/John&#45;&gt;LJohn</title>
<path fill="none" stroke="#000000" d="M467.3692,-211.7337C465.0442,-223.7688 461.9521,-239.7751 459.3161,-253.4203"/>
<polygon fill="#000000" stroke="#000000" points="455.8698,-252.8073 457.4095,-263.2897 462.7428,-254.1351 455.8698,-252.8073"/>
</g>
<!-- Rhttp://dig.isi.edu/Man -->
<g id="node9" class="node">
<title>Rhttp://dig.isi.edu/Man</title>
<g id="a_node9"><a xlink:href="http://dig.isi.edu/Man" xlink:title="http://dig.isi.edu/Man">
<ellipse fill="none" stroke="#0000ff" cx="586.8916" cy="-281.5" rx="87.9851" ry="18"/>
<text text-anchor="middle" x="586.8916" y="-277.8" font-family="Times,serif" font-size="14.00" fill="#000000">http://dig.isi.edu/Man</text>
</a>
</g>
</g>
<!-- Rhttp://dig.isi.edu/John&#45;&gt;Rhttp://dig.isi.edu/Man -->
<g id="edge7" class="edge">
<title>Rhttp://dig.isi.edu/John&#45;&gt;Rhttp://dig.isi.edu/Man</title>
<path fill="none" stroke="#000000" d="M489.6868,-211.1774C500.9894,-221.4804 515.8611,-234.4751 529.8916,-245 536.1705,-249.7101 543.0534,-254.4472 549.7977,-258.8766"/>
<polygon fill="#000000" stroke="#000000" points="547.9085,-261.823 558.2104,-264.2974 551.7001,-255.9387 547.9085,-261.823"/>
<text text-anchor="middle" x="551.3916" y="-233.8" font-family="Times,serif" font-size="14.00" fill="#000000">rdf:type</text>
</g>
<!-- Rhttp://dig.isi.edu/John_jr -->
<g id="node10" class="node">
<title>Rhttp://dig.isi.edu/John_jr</title>
<g id="a_node10"><a xlink:href="http://dig.isi.edu/John_jr" xlink:title="http://dig.isi.edu/John_jr">
<ellipse fill="none" stroke="#0000ff" cx="567.8916" cy="-18" rx="97.4827" ry="18"/>
<text text-anchor="middle" x="567.8916" y="-14.3" font-family="Times,serif" font-size="14.00" fill="#000000">http://dig.isi.edu/John_jr</text>
</a>
</g>
</g>
<!-- Rhttp://dig.isi.edu/John_jr&#45;&gt;Rhttp://dig.isi.edu/Mary -->
<g id="edge10" class="edge">
<title>Rhttp://dig.isi.edu/John_jr&#45;&gt;Rhttp://dig.isi.edu/Mary</title>
<path fill="none" stroke="#000000" d="M540.6272,-35.2872C519.1746,-48.8894 489.1003,-67.9582 465.7063,-82.7914"/>
<polygon fill="#000000" stroke="#000000" points="463.6705,-79.9379 457.0993,-88.2487 467.419,-85.8497 463.6705,-79.9379"/>
</g>
<!-- Rhttp://dig.isi.edu/John_jr&#45;&gt;Rhttp://dig.isi.edu/John -->
<g id="edge9" class="edge">
<title>Rhttp://dig.isi.edu/John_jr&#45;&gt;Rhttp://dig.isi.edu/John</title>
<path fill="none" stroke="#000000" d="M563.5378,-36.1084C557.822,-57.9235 546.5215,-95.2257 529.8916,-124 520.644,-140.0009 507.5579,-155.8642 496.0588,-168.3865"/>
<polygon fill="#000000" stroke="#000000" points="493.4584,-166.0426 489.1525,-175.7231 498.5553,-170.8407 493.4584,-166.0426"/>
</g>
<!-- Rhttp://dig.isi.edu/John_jr&#45;&gt;Rhttp://dig.isi.edu/Man -->
<g id="edge16" class="edge">
<title>Rhttp://dig.isi.edu/John_jr&#45;&gt;Rhttp://dig.isi.edu/Man</title>
<path fill="none" stroke="#000000" d="M569.4635,-36.3105C569.9378,-41.9796 570.4496,-48.247 570.8916,-54 576.3998,-125.6953 582.1451,-210.1604 585.019,-253.1955"/>
<polygon fill="#000000" stroke="#000000" points="581.5291,-253.4656 585.6859,-263.211 588.5136,-253.0005 581.5291,-253.4656"/>
<text text-anchor="middle" x="600.3916" y="-145.8" font-family="Times,serif" font-size="14.00" fill="#000000">rdf:type</text>
</g>
<!-- LJohn Jr. -->
<g id="node16" class="node">
<title>LJohn Jr.</title>
<polygon fill="none" stroke="#000000" points="615.3916,-87.5 615.3916,-123.5 674.3916,-123.5 674.3916,-87.5 615.3916,-87.5"/>
<text text-anchor="middle" x="644.8916" y="-101.8" font-family="Times,serif" font-size="14.00" fill="#000000">John Jr.</text>
</g>
<!-- Rhttp://dig.isi.edu/John_jr&#45;&gt;LJohn Jr. -->
<g id="edge15" class="edge">
<title>Rhttp://dig.isi.edu/John_jr&#45;&gt;LJohn Jr.</title>
<path fill="none" stroke="#000000" d="M584.4656,-35.8334C589.7572,-41.5928 595.6096,-48.0319 600.8916,-54 608.1398,-62.1898 615.9286,-71.2258 622.9086,-79.4124"/>
<polygon fill="#000000" stroke="#000000" points="620.4273,-81.8976 629.569,-87.253 625.7623,-77.3657 620.4273,-81.8976"/>
</g>
<!-- Rhttp://dig.isi.edu/event -->
<g id="node11" class="node">
<title>Rhttp://dig.isi.edu/event</title>
<g id="a_node11"><a xlink:href="http://dig.isi.edu/event" xlink:title="http://dig.isi.edu/event">
<ellipse fill="none" stroke="#0000ff" cx="841.8916" cy="-18" rx="90.1842" ry="18"/>
<text text-anchor="middle" x="841.8916" y="-14.3" font-family="Times,serif" font-size="14.00" fill="#000000">http://dig.isi.edu/event</text>
</a>
</g>
</g>
<!-- Rhttp://dig.isi.edu/Activity -->
<g id="node12" class="node">
<title>Rhttp://dig.isi.edu/Activity</title>
<g id="a_node12"><a xlink:href="http://dig.isi.edu/Activity" xlink:title="http://dig.isi.edu/Activity">
<ellipse fill="none" stroke="#0000ff" cx="792.8916" cy="-105.5" rx="100.1823" ry="18"/>
<text text-anchor="middle" x="792.8916" y="-101.8" font-family="Times,serif" font-size="14.00" fill="#000000">http://dig.isi.edu/Activity</text>
</a>
</g>
</g>
<!-- Rhttp://dig.isi.edu/event&#45;&gt;Rhttp://dig.isi.edu/Activity -->
<g id="edge11" class="edge">
<title>Rhttp://dig.isi.edu/event&#45;&gt;Rhttp://dig.isi.edu/Activity</title>
<path fill="none" stroke="#000000" d="M831.7387,-36.1301C824.9059,-48.3315 815.7744,-64.6378 808.0815,-78.3752"/>
<polygon fill="#000000" stroke="#000000" points="804.8637,-76.958 803.0314,-87.3932 810.9713,-80.3782 804.8637,-76.958"/>
<text text-anchor="middle" x="842.3916" y="-57.8" font-family="Times,serif" font-size="14.00" fill="#000000">rdf:type</text>
</g>
<!-- B_:genid1 -->
<g id="node13" class="node">
<title>B_:genid1</title>
<ellipse fill="none" stroke="#00ff00" cx="928.8916" cy="-105.5" rx="18" ry="18"/>
</g>
<!-- Rhttp://dig.isi.edu/event&#45;&gt;B_:genid1 -->
<g id="edge14" class="edge">
<title>Rhttp://dig.isi.edu/event&#45;&gt;B_:genid1</title>
<path fill="none" stroke="#000000" d="M859.4973,-35.7069C873.7885,-50.0802 893.9423,-70.3498 908.8507,-85.344"/>
<polygon fill="#000000" stroke="#000000" points="906.5772,-88.0214 916.1099,-92.6449 911.5411,-83.0858 906.5772,-88.0214"/>
</g>
<!-- Rhttp://dig.isi.edu/Time_Span -->
<g id="node14" class="node">
<title>Rhttp://dig.isi.edu/Time_Span</title>
<g id="a_node14"><a xlink:href="http://dig.isi.edu/Time_Span" xlink:title="http://dig.isi.edu/Time_Span">
<ellipse fill="none" stroke="#0000ff" cx="815.8916" cy="-193.5" rx="112.3801" ry="18"/>
<text text-anchor="middle" x="815.8916" y="-189.8" font-family="Times,serif" font-size="14.00" fill="#000000">http://dig.isi.edu/Time_Span</text>
</a>
</g>
</g>
<!-- B_:genid1&#45;&gt;Rhttp://dig.isi.edu/Time_Span -->
<g id="edge12" class="edge">
<title>B_:genid1&#45;&gt;Rhttp://dig.isi.edu/Time_Span</title>
<path fill="none" stroke="#000000" d="M914.5801,-116.6453C897.6234,-129.8505 868.888,-152.2285 846.7843,-169.4419"/>
<polygon fill="#000000" stroke="#000000" points="844.4152,-166.8507 838.676,-175.7564 848.7162,-172.3736 844.4152,-166.8507"/>
<text text-anchor="middle" x="901.3916" y="-145.8" font-family="Times,serif" font-size="14.00" fill="#000000">rdf:type</text>
</g>
<!-- L2018&#45;01&#45;12 -->
<g id="node15" class="node">
<title>L2018&#45;01&#45;12</title>
<polygon fill="none" stroke="#000000" points="945.8916,-175.5 945.8916,-211.5 1025.8916,-211.5 1025.8916,-175.5 945.8916,-175.5"/>
<text text-anchor="middle" x="985.8916" y="-189.8" font-family="Times,serif" font-size="14.00" fill="#000000">2018&#45;01&#45;12</text>
</g>
<!-- B_:genid1&#45;&gt;L2018&#45;01&#45;12 -->
<g id="edge13" class="edge">
<title>B_:genid1&#45;&gt;L2018&#45;01&#45;12</title>
<path fill="none" stroke="#000000" d="M938.8202,-120.8284C947.0325,-133.507 958.8887,-151.8113 968.6472,-166.8771"/>
<polygon fill="#000000" stroke="#000000" points="965.733,-168.816 974.1071,-175.3064 971.6082,-165.0104 965.733,-168.816"/>
</g>
<!-- Rhttp://www.w3.org/2002/07/owl#Class -->
<g id="node17" class="node">
<title>Rhttp://www.w3.org/2002/07/owl#Class</title>
<g id="a_node17"><a xlink:href="http://www.w3.org/2002/07/owl#Class" xlink:title="owl:Class">
<ellipse fill="none" stroke="#0000ff" cx="815.8916" cy="-281.5" rx="45.4919" ry="18"/>
<text text-anchor="middle" x="815.8916" y="-277.8" font-family="Times,serif" font-size="14.00" fill="#000000">owl:Class</text>
</a>
</g>
</g>
<!-- Rhttp://dig.isi.edu/Time_Span&#45;&gt;Rhttp://www.w3.org/2002/07/owl#Class -->
<g id="edge17" class="edge">
<title>Rhttp://dig.isi.edu/Time_Span&#45;&gt;Rhttp://www.w3.org/2002/07/owl#Class</title>
<path fill="none" stroke="#000000" d="M815.8916,-211.7337C815.8916,-223.6508 815.8916,-239.4616 815.8916,-253.0183"/>
<polygon fill="#000000" stroke="#000000" points="812.3917,-253.2897 815.8916,-263.2897 819.3917,-253.2897 812.3917,-253.2897"/>
<text text-anchor="middle" x="837.3916" y="-233.8" font-family="Times,serif" font-size="14.00" fill="#000000">rdf:type</text>
</g>
</g>
</svg>
